{"response": {"status": "ok", "orderBy": "newest", "pageSize": 10, "userTier": "developer", "results": [{"webUrl": "https://www.theguardian.com/sport/2017/apr/05/saracens-phil-morrow-lions-new-zealand", "sectionName": "Sport", "webTitle": "Saracens performance director Phil Morrow to join Lions tour", "sectionId": "sport", "apiUrl": "https://content.guardianapis.com/sport/2017/apr/05/saracens-phil-morrow-lions-new-zealand", "isHosted": false, "webPublicationDate": "2017-04-05T23:01:25Z", "type": "article", "id": "sport/2017/apr/05/saracens-phil-morrow-lions-new-zealand"}, {"webUrl": "https://www.theguardian.com/sport/2017/apr/06/no-club-should-go-under-the-battle-to-save-the-frankston-dolphins", "sectionName": "Sport", "webTitle": "'No club should go under': the battle to save the Frankston Dolphins", "sectionId": "sport", "apiUrl": "https://content.guardianapis.com/sport/2017/apr/06/no-club-should-go-under-the-battle-to-save-the-frankston-dolphins", "isHosted": false, "webPublicationDate": "2017-04-05T20:00:21Z", "type": "article", "id": "sport/2017/apr/06/no-club-should-go-under-the-battle-to-save-the-frankston-dolphins"}, {"webUrl": "https://www.theguardian.com/sport/2017/apr/05/dustin-johnson-masters-favourite-jordan-spieth", "sectionName": "Sport", "webTitle": "Dustin Johnson may find it tough to justify Masters favourite tag", "sectionId": "sport", "apiUrl": "https://content.guardianapis.com/sport/2017/apr/05/dustin-johnson-masters-favourite-jordan-spieth", "isHosted": false, "webPublicationDate": "2017-04-05T18:46:01Z", "type": "article", "id": "sport/2017/apr/05/dustin-johnson-masters-favourite-jordan-spieth"}, {"webUrl": "https://www.theguardian.com/sport/2017/apr/05/willie-mullins-exonerated-irish-horse-racing-officials-vet-drugs-bust", "sectionName": "Sport", "webTitle": "Willie Mullins exonerated by Irish officials over vet drugs bust", "sectionId": "sport", "apiUrl": "https://content.guardianapis.com/sport/2017/apr/05/willie-mullins-exonerated-irish-horse-racing-officials-vet-drugs-bust", "isHosted": false, "webPublicationDate": "2017-04-05T18:44:13Z", "type": "article", "id": "sport/2017/apr/05/willie-mullins-exonerated-irish-horse-racing-officials-vet-drugs-bust"}, {"webUrl": "https://www.theguardian.com/sport/2017/apr/05/wladimir-klitschko-anthony-joshua-boxing", "sectionName": "Sport", "webTitle": "Wladimir Klitschko praises Anthony Joshua\u2019s strength but queries his ability", "sectionId": "sport", "apiUrl": "https://content.guardianapis.com/sport/2017/apr/05/wladimir-klitschko-anthony-joshua-boxing", "isHosted": false, "webPublicationDate": "2017-04-05T16:12:39Z", "type": "article", "id": "sport/2017/apr/05/wladimir-klitschko-anthony-joshua-boxing"}, {"webUrl": "https://www.theguardian.com/sport/2017/apr/05/one-careful-owner-nick-kyrgios-facebook-sell-old-car-tennis", "sectionName": "Sport", "webTitle": "One careful owner: tennis star Nick Kyrgios uses Facebook to sell his old car", "sectionId": "sport", "apiUrl": "https://content.guardianapis.com/sport/2017/apr/05/one-careful-owner-nick-kyrgios-facebook-sell-old-car-tennis", "isHosted": false, "webPublicationDate": "2017-04-05T15:19:48Z", "type": "article", "id": "sport/2017/apr/05/one-careful-owner-nick-kyrgios-facebook-sell-old-car-tennis"}, {"webUrl": "https://www.theguardian.com/sport/2017/apr/05/wisden-comes-out-fighting-free-to-air-cricket-coverage-england-alastair-cook", "sectionName": "Sport", "webTitle": "Wisden comes out fighting and backs free-to-air cricket coverage in UK", "sectionId": "sport", "apiUrl": "https://content.guardianapis.com/sport/2017/apr/05/wisden-comes-out-fighting-free-to-air-cricket-coverage-england-alastair-cook", "isHosted": false, "webPublicationDate": "2017-04-05T14:31:00Z", "type": "article", "id": "sport/2017/apr/05/wisden-comes-out-fighting-free-to-air-cricket-coverage-england-alastair-cook"}, {"webUrl": "https://www.theguardian.com/sport/2017/apr/05/super-league-increase-salaray-cap-second-marquee-player", "sectionName": "Sport", "webTitle": "Super League clubs vote for salary cap rise and second marquee player", "sectionId": "sport", "apiUrl": "https://content.guardianapis.com/sport/2017/apr/05/super-league-increase-salaray-cap-second-marquee-player", "isHosted": false, "webPublicationDate": "2017-04-05T13:56:46Z", "type": "article", "id": "sport/2017/apr/05/super-league-increase-salaray-cap-second-marquee-player"}, {"webUrl": "https://www.theguardian.com/sport/2017/apr/05/talking-horses-wednesday-best-bets-kempton-park-wincanton", "sectionName": "Sport", "webTitle": "Talking Horses: Wednesday\u2019s best bets for Kempton Park and Wincanton", "sectionId": "sport", "apiUrl": "https://content.guardianapis.com/sport/2017/apr/05/talking-horses-wednesday-best-bets-kempton-park-wincanton", "isHosted": false, "webPublicationDate": "2017-04-05T12:16:49Z", "type": "article", "id": "sport/2017/apr/05/talking-horses-wednesday-best-bets-kempton-park-wincanton"}, {"webUrl": "https://www.theguardian.com/sport/2017/apr/05/athletics-nationality-debate-migeul-francis-antigua-gb-usain-bolt", "sectionName": "Sport", "webTitle": "Nationality debate to reignite after Miguel Francis swaps Antigua for GB", "sectionId": "sport", "apiUrl": "https://content.guardianapis.com/sport/2017/apr/05/athletics-nationality-debate-migeul-francis-antigua-gb-usain-bolt", "isHosted": false, "webPublicationDate": "2017-04-05T11:36:19Z", "type": "article", "id": "sport/2017/apr/05/athletics-nationality-debate-migeul-francis-antigua-gb-usain-bolt"}], "startIndex": 1, "currentPage": 1, "total": 145037, "pages": 14504}}